{
  "type": "service_account",
  "project_id": "finai-production",
  "private_key_id": "88ee76a81aa9a35a0dd729aba9f5a9f7bf23f4df",
  "private_key": "-----BEGIN PRIVATE KEY-----\nMIIEvQIBADANBgkqhkiG9w0BAQEFAASCBKcwggSjAgEAAoIBAQDe2J2gtMvP6WnL\nkZOHb7dJFQz8UVvsc9Jx+RC/+V1+JUAY8GqYrdvrlKlBcxUoqdHtOdfk6p4J7a7T\nxFXmY+u3JM9pJhZqRhq0ubf36jrspZeFf2SEj4h3wK14Hy4I+4Av7A2igJVvKM6C\nM5cbEhSx3pQQ62WRvo4k3lhaMacQiuhCz6b0G8gpM6sREDrDRDYQ++KH7CNRhmJn\nuem8oxcN9bYbTahcHOuPu2vdn3cD5NRMNQxcRexktUG+R7wo82rTrsmiN1GALLZa\ncmC90G+JHDcebdXdRwEIHu02vfdNtePyaQu4pB2eEuA40r/urujwf7ydW+tZFo3H\nA5TBi/QFAgMBAAECggEADS0uPtZ0jFM0cfi7iivRINVe5UbIl8CDyOuYRwhPM/pZ\nt0/J4cQP8kv3PmXislA+QoJj0Vw3uDBmtgylzp+0YZR1M3YGJ8ZZkGZAf5HI5lK7\n6kUYKV1qTThmRBQbOaU9/7dmWVLfOHQnfRvgpgAJm2Mk3/jnPSOmYygxfbMcuism\n4JVYnrCsdRqOM3Q4Wmq7AZdycymLn6vwfoeVe3d35z+oUU+2gn/E5SajVncQsbhg\n1gs13b5uBogp3SLWIE8wqleALKex2KSoT0uBbsVQ82L/qR6tnDtqnej6nD8Ophnl\nKRpiae31SVHPWUReh47wZ1GXxR5kAqEr4BXGq6mZEQKBgQD4ITHU2flsuzdpOiVk\nfgZaLLanX5PDiwh/YQChhhVFHfq4P9jkR0CyAalnAoRBpG1/Xy6VbD1a6T59LRl2\nWGPEmBVV3dcAVpKDMlWRCkPmmkKacS17jsQ/H19vnX2+LZZQMGoerkgc7mNpCqTz\nFeS0qP4FKzKlCxQYXmXnjmjysQKBgQDl6h6m/8AI1Rp/3HMnh7Co4A0NfWE2k4Dd\nftq1j4nqF1bJlNUohwVYVxOAKU3KkY2+1IYWgrOWfTUm7SCaM17hQ3o8gCLeBQ19\nEWNVzVz6Ex3UfgQSTchFdS+yi1mb++PtS6E5r5pHyOuv/VPOLxNqaBCmNL1NcC4E\nEkzMZvCjlQKBgDTtB68KK4zIxkH4uB8eToaPgQpkdaVBE7fv3e2WJxVOFruUStQu\naptNhW/GdqV1yDFiARK4OsIYfE7A/uxiYC1/7xUYs5KL5MZ9Rwkf8mnOv6Qnvfbb\n9fos2/N32WlmWeiS2x/eNt2M78FpFtQO+HCcl0pM84mGumuUPxJMKxCRAoGAKu7T\nFoA/jeatch7qagFOndpo1ZIKKzTUJYhgsvLA4DPHgxEF1PGRr/NistYDrsYLYA0z\nlNSHUJzE5iX1ppXdK9d75fxPhoIPCMHMeONGb3ROZ7W4cOqRcVb2tzKKYzRgVZl/\n29PMzYbZbB20HpZv27jfEwpaJzHBhgUczjaSzRkCgYEAig+kvBmGBWdYA3CgKbxd\nEW5dzjDhCSkZ78kCRAIwsFbusHVqy/aCmvJhLvN3lh5cypXoKRkJRAX8AXDewJOo\n17G4wQgJwkU4c6yUdqAhAwvVMbQnJe9UxnCLWF0FRqk0FhESUXiSmmr0ursQpYtV\ngHzRzKV6EhsftK/RDxGxKcg=\n-----END PRIVATE KEY-----\n",
  "client_email": "firebase-adminsdk-1q74r@finai-production.iam.gserviceaccount.com",
  "client_id": "116081500380823885119",
  "auth_uri": "https://accounts.google.com/o/oauth2/auth",
  "token_uri": "https://oauth2.googleapis.com/token",
  "auth_provider_x509_cert_url": "https://www.googleapis.com/oauth2/v1/certs",
  "client_x509_cert_url": "https://www.googleapis.com/robot/v1/metadata/x509/firebase-adminsdk-1q74r%40finai-production.iam.gserviceaccount.com"
}
